#! /bin/sh
# Automatically generated test.  DO NOT EDIT BY HAND!
am_create_testdir=empty depmode=makedepend depcomp_with_libtool=no
required="cc makedepend"
. ./defs || exit 1
plan_ 28
. depcomp.sh
exit $?
