#! /bin/sh
# This file has been automatically generated.  DO NOT EDIT BY HAND!
. test-lib.sh
am_tap_implementation=perl
# In the spirit of VPATH, we prefer a test in the build tree
# over one in the source tree.
for dir in . "$am_top_srcdir"; do
  if test -f "$dir/t/tap-signal.tap"; then
    echo "$0: will source $dir/t/tap-signal.tap"
    . "$dir/t/tap-signal.tap"; exit $?
  fi
done
echo "$0: cannot find wrapped test 't/tap-signal.tap'" >&2
exit 99
